[    0.000000] Initializing cgroup subsys cpuset
[    0.000000] Initializing cgroup subsys cpu
[    0.000000] Initializing cgroup subsys cpuacct
[    0.000000] Linux version 4.3.3 (root@vm0) (gcc version 4.8.5 20150623 (Red Hat 4.8.5-4) (GCC) ) #2 SMP Tue Feb 28 16:50:25 EST 2017
[    0.000000] Command line: BOOT_IMAGE=/vmlinuz-4.3.3 root=/dev/mapper/centos-root ro rd.lvm.lv=centos/root rd.lvm.lv=centos/swap LANG=en_US.UTF-8
[    0.000000] x86/fpu: Legacy x87 FPU detected.
[    0.000000] x86/fpu: Using 'lazy' FPU context switches.
[    0.000000] e820: BIOS-provided physical RAM map:
[    0.000000] BIOS-e820: [mem 0x0000000000000000-0x000000000009fbff] usable
[    0.000000] BIOS-e820: [mem 0x000000000009fc00-0x000000000009ffff] reserved
[    0.000000] BIOS-e820: [mem 0x00000000000f0000-0x00000000000fffff] reserved
[    0.000000] BIOS-e820: [mem 0x0000000000100000-0x00000000bfffdfff] usable
[    0.000000] BIOS-e820: [mem 0x00000000bfffe000-0x00000000bfffffff] reserved
[    0.000000] BIOS-e820: [mem 0x00000000feffc000-0x00000000feffffff] reserved
[    0.000000] BIOS-e820: [mem 0x00000000fffc0000-0x00000000ffffffff] reserved
[    0.000000] BIOS-e820: [mem 0x0000000100000000-0x000000013fffffff] usable
[    0.000000] NX (Execute Disable) protection: active
[    0.000000] SMBIOS 2.4 present.
[    0.000000] DMI: Red Hat KVM, BIOS 0.5.1 01/01/2011
[    0.000000] Hypervisor detected: KVM
[    0.000000] e820: update [mem 0x00000000-0x00000fff] usable ==> reserved
[    0.000000] e820: remove [mem 0x000a0000-0x000fffff] usable
[    0.000000] e820: last_pfn = 0x140000 max_arch_pfn = 0x400000000
[    0.000000] MTRR default type: write-back
[    0.000000] MTRR fixed ranges enabled:
[    0.000000]   00000-9FFFF write-back
[    0.000000]   A0000-BFFFF uncachable
[    0.000000]   C0000-FFFFF write-protect
[    0.000000] MTRR variable ranges enabled:
[    0.000000]   0 base 0000C0000000 mask 3FFFC0000000 uncachable
[    0.000000]   1 disabled
[    0.000000]   2 disabled
[    0.000000]   3 disabled
[    0.000000]   4 disabled
[    0.000000]   5 disabled
[    0.000000]   6 disabled
[    0.000000]   7 disabled
[    0.000000] x86/PAT: PAT not supported by CPU.
[    0.000000] e820: last_pfn = 0xbfffe max_arch_pfn = 0x400000000
[    0.000000] found SMP MP-table at [mem 0x000f2000-0x000f200f] mapped at [ffff8800000f2000]
[    0.000000] Base memory trampoline at [ffff880000099000] 99000 size 24576
[    0.000000] init_memory_mapping: [mem 0x00000000-0x000fffff]
[    0.000000]  [mem 0x00000000-0x000fffff] page 4k
[    0.000000] BRK [0x01ff7000, 0x01ff7fff] PGTABLE
[    0.000000] BRK [0x01ff8000, 0x01ff8fff] PGTABLE
[    0.000000] BRK [0x01ff9000, 0x01ff9fff] PGTABLE
[    0.000000] init_memory_mapping: [mem 0x13fe00000-0x13fffffff]
[    0.000000]  [mem 0x13fe00000-0x13fffffff] page 2M
[    0.000000] BRK [0x01ffa000, 0x01ffafff] PGTABLE
[    0.000000] init_memory_mapping: [mem 0x120000000-0x13fdfffff]
[    0.000000]  [mem 0x120000000-0x13fdfffff] page 2M
[    0.000000] init_memory_mapping: [mem 0x00100000-0xbfffdfff]
[    0.000000]  [mem 0x00100000-0x001fffff] page 4k
[    0.000000]  [mem 0x00200000-0xbfdfffff] page 2M
[    0.000000]  [mem 0xbfe00000-0xbfffdfff] page 4k
[    0.000000] init_memory_mapping: [mem 0x100000000-0x11fffffff]
[    0.000000]  [mem 0x100000000-0x11fffffff] page 2M
[    0.000000] RAMDISK: [mem 0x32b4f000-0x3559ffff]
[    0.000000] ACPI: Early table checksum verification disabled
[    0.000000] ACPI: RSDP 0x00000000000F1E40 000014 (v00 BOCHS )
[    0.000000] ACPI: RSDT 0x00000000BFFFFA9B 000034 (v01 BOCHS  BXPCRSDT 00000001 BXPC 00000001)
[    0.000000] ACPI: FACP 0x00000000BFFFF177 000074 (v01 BOCHS  BXPCFACP 00000001 BXPC 00000001)
[    0.000000] ACPI: DSDT 0x00000000BFFFE040 001137 (v01 BXPC   BXDSDT   00000001 INTL 20130823)
[    0.000000] ACPI: FACS 0x00000000BFFFE000 000040
[    0.000000] ACPI: SSDT 0x00000000BFFFF1EB 000838 (v01 BOCHS  BXPCSSDT 00000001 BXPC 00000001)
[    0.000000] ACPI: APIC 0x00000000BFFFFA23 000078 (v01 BOCHS  BXPCAPIC 00000001 BXPC 00000001)
[    0.000000] ACPI: RSDT 0x00000000BFFFFA9B 000034 (v01 BOCHS  BXPCRSDT 00000001 BXPC 00000001)
[    0.000000] ACPI: Local APIC address 0xfee00000
[    0.000000] No NUMA configuration found
[    0.000000] Faking a node at [mem 0x0000000000000000-0x000000013fffffff]
[    0.000000] NODE_DATA(0) allocated [mem 0x13ffd6000-0x13fffcfff]
[    0.000000] kvm-clock: Using msrs 4b564d01 and 4b564d00
[    0.000000] kvm-clock: cpu 0, msr 1:3ff56001, primary cpu clock
[    0.000000] clocksource: kvm-clock: mask: 0xffffffffffffffff max_cycles: 0x1cd42e4dffb, max_idle_ns: 881590591483 ns
[    0.000000]  [ffffea0000000000-ffffea0004ffffff] PMD -> [ffff88013b600000-ffff88013f5fffff] on node 0
[    0.000000] Zone ranges:
[    0.000000]   DMA      [mem 0x0000000000001000-0x0000000000ffffff]
[    0.000000]   DMA32    [mem 0x0000000001000000-0x00000000ffffffff]
[    0.000000]   Normal   [mem 0x0000000100000000-0x000000013fffffff]
[    0.000000] Movable zone start for each node
[    0.000000] Early memory node ranges
[    0.000000]   node   0: [mem 0x0000000000001000-0x000000000009efff]
[    0.000000]   node   0: [mem 0x0000000000100000-0x00000000bfffdfff]
[    0.000000]   node   0: [mem 0x0000000100000000-0x000000013fffffff]
[    0.000000] Initmem setup node 0 [mem 0x0000000000001000-0x000000013fffffff]
[    0.000000] On node 0 totalpages: 1048476
[    0.000000]   DMA zone: 64 pages used for memmap
[    0.000000]   DMA zone: 21 pages reserved
[    0.000000]   DMA zone: 3998 pages, LIFO batch:0
[    0.000000]   DMA32 zone: 12224 pages used for memmap
[    0.000000]   DMA32 zone: 782334 pages, LIFO batch:31
[    0.000000]   Normal zone: 4096 pages used for memmap
[    0.000000]   Normal zone: 262144 pages, LIFO batch:31
[    0.000000] ACPI: PM-Timer IO Port: 0x608
[    0.000000] ACPI: Local APIC address 0xfee00000
[    0.000000] ACPI: LAPIC_NMI (acpi_id[0xff] dfl dfl lint[0x1])
[    0.000000] IOAPIC[0]: apic_id 0, version 17, address 0xfec00000, GSI 0-23
[    0.000000] ACPI: INT_SRC_OVR (bus 0 bus_irq 0 global_irq 2 dfl dfl)
[    0.000000] ACPI: INT_SRC_OVR (bus 0 bus_irq 5 global_irq 5 high level)
[    0.000000] ACPI: INT_SRC_OVR (bus 0 bus_irq 9 global_irq 9 high level)
[    0.000000] ACPI: INT_SRC_OVR (bus 0 bus_irq 10 global_irq 10 high level)
[    0.000000] ACPI: INT_SRC_OVR (bus 0 bus_irq 11 global_irq 11 high level)
[    0.000000] ACPI: IRQ0 used by override.
[    0.000000] ACPI: IRQ5 used by override.
[    0.000000] ACPI: IRQ9 used by override.
[    0.000000] ACPI: IRQ10 used by override.
[    0.000000] ACPI: IRQ11 used by override.
[    0.000000] Using ACPI (MADT) for SMP configuration information
[    0.000000] smpboot: Allowing 1 CPUs, 0 hotplug CPUs
[    0.000000] PM: Registered nosave memory: [mem 0x00000000-0x00000fff]
[    0.000000] PM: Registered nosave memory: [mem 0x0009f000-0x0009ffff]
[    0.000000] PM: Registered nosave memory: [mem 0x000a0000-0x000effff]
[    0.000000] PM: Registered nosave memory: [mem 0x000f0000-0x000fffff]
[    0.000000] PM: Registered nosave memory: [mem 0xbfffe000-0xbfffffff]
[    0.000000] PM: Registered nosave memory: [mem 0xc0000000-0xfeffbfff]
[    0.000000] PM: Registered nosave memory: [mem 0xfeffc000-0xfeffffff]
[    0.000000] PM: Registered nosave memory: [mem 0xff000000-0xfffbffff]
[    0.000000] PM: Registered nosave memory: [mem 0xfffc0000-0xffffffff]
[    0.000000] e820: [mem 0xc0000000-0xfeffbfff] available for PCI devices
[    0.000000] Booting paravirtualized kernel on KVM
[    0.000000] clocksource: refined-jiffies: mask: 0xffffffff max_cycles: 0xffffffff, max_idle_ns: 1910969940391419 ns
[    0.000000] setup_percpu: NR_CPUS:8192 nr_cpumask_bits:1 nr_cpu_ids:1 nr_node_ids:1
[    0.000000] PERCPU: Embedded 34 pages/cpu @ffff88013fc00000 s98392 r8192 d32680 u2097152
[    0.000000] pcpu-alloc: s98392 r8192 d32680 u2097152 alloc=1*2097152
[    0.000000] pcpu-alloc: [0] 0 
[    0.000000] KVM setup async PF for cpu 0
[    0.000000] kvm-stealtime: cpu 0, msr 13fc0d980
[    0.000000] PV qspinlock hash table entries: 256 (order: 0, 4096 bytes)
[    0.000000] Built 1 zonelists in Node order, mobility grouping on.  Total pages: 1032071
[    0.000000] Policy zone: Normal
[    0.000000] Kernel command line: BOOT_IMAGE=/vmlinuz-4.3.3 root=/dev/mapper/centos-root ro rd.lvm.lv=centos/root rd.lvm.lv=centos/swap LANG=en_US.UTF-8
[    0.000000] PID hash table entries: 4096 (order: 3, 32768 bytes)
[    0.000000] Memory: 4001460K/4193904K available (6704K kernel code, 1373K rwdata, 3256K rodata, 1752K init, 3212K bss, 192444K reserved, 0K cma-reserved)
[    0.000000] SLUB: HWalign=64, Order=0-3, MinObjects=0, CPUs=1, Nodes=1
[    0.000000] Hierarchical RCU implementation.
[    0.000000] 	Build-time adjustment of leaf fanout to 64.
[    0.000000] 	RCU restricting CPUs from NR_CPUS=8192 to nr_cpu_ids=1.
[    0.000000] RCU: Adjusting geometry for rcu_fanout_leaf=64, nr_cpu_ids=1
[    0.000000] NR_IRQS:524544 nr_irqs:256 16
[    0.000000] 	Offload RCU callbacks from all CPUs
[    0.000000] 	Offload RCU callbacks from CPUs: 0.
[    0.000000] Console: colour VGA+ 80x25
[    0.000000] console [tty0] enabled
[    0.000000] tsc: Detected 2699.998 MHz processor
[    0.002000] Calibrating delay loop (skipped) preset value.. 5399.99 BogoMIPS (lpj=2699998)
[    0.002004] pid_max: default: 32768 minimum: 301
[    0.003007] ACPI: Core revision 20150818
[    0.005013] ACPI: 2 ACPI AML tables successfully acquired and loaded
[    0.005782] Security Framework initialized
[    0.006004] SELinux:  Initializing.
[    0.006586] SELinux:  Starting in permissive mode
[    0.007655] Dentry cache hash table entries: 524288 (order: 10, 4194304 bytes)
[    0.010004] Inode-cache hash table entries: 262144 (order: 9, 2097152 bytes)
[    0.011280] Mount-cache hash table entries: 8192 (order: 4, 65536 bytes)
[    0.011931] Mountpoint-cache hash table entries: 8192 (order: 4, 65536 bytes)
[    0.012172] Initializing cgroup subsys io
[    0.013008] Initializing cgroup subsys memory
[    0.013616] Initializing cgroup subsys devices
[    0.014005] Initializing cgroup subsys freezer
[    0.015012] Initializing cgroup subsys net_cls
[    0.015614] Initializing cgroup subsys perf_event
[    0.016005] Initializing cgroup subsys hugetlb
[    0.017060] mce: CPU supports 10 MCE banks
[    0.017693] Last level iTLB entries: 4KB 0, 2MB 0, 4MB 0
[    0.018003] Last level dTLB entries: 4KB 0, 2MB 0, 4MB 0, 1GB 0
[    0.030971] Freeing SMP alternatives memory: 24K (ffffffff81ccc000 - ffffffff81cd2000)
[    0.039129] ftrace: allocating 26332 entries in 103 pages
[    0.048194] ..TIMER: vector=0x30 apic1=0 pin1=2 apic2=-1 pin2=-1
[    0.049000] smpboot: CPU0: Intel QEMU Virtual CPU version 1.5.3 (family: 0x6, model: 0xd, stepping: 0x3)
[    0.049025] Performance Events: Broken PMU hardware detected, using software events only.
[    0.051002] Failed to access perfctr msr (MSR c2 is 0)
[    0.052012] KVM setup paravirtual spinlock
[    0.053558] x86: Booted up 1 node, 1 CPUs
[    0.054004] smpboot: Total of 1 processors activated (5399.99 BogoMIPS)
[    0.055136] devtmpfs: initialized
[    0.058728] evm: security.selinux
[    0.059002] evm: security.ima
[    0.059559] evm: security.capability
[    0.060120] clocksource: jiffies: mask: 0xffffffff max_cycles: 0xffffffff, max_idle_ns: 1911260446275000 ns
[    0.061084] atomic64_test: passed for x86-64 platform with CX8 and with SSE
[    0.062007] pinctrl core: initialized pinctrl subsystem
[    0.063237] NET: Registered protocol family 16
[    0.064222] cpuidle: using governor menu
[    0.066067] ACPI: bus type PCI registered
[    0.067005] acpiphp: ACPI Hot Plug PCI Controller Driver version: 0.5
[    0.068203] PCI: Using configuration type 1 for base access
[    0.071577] ACPI: Added _OSI(Module Device)
[    0.072005] ACPI: Added _OSI(Processor Device)
[    0.073004] ACPI: Added _OSI(3.0 _SCP Extensions)
[    0.074012] ACPI: Added _OSI(Processor Aggregator Device)
[    0.078773] ACPI: Interpreter enabled
[    0.079010] ACPI Exception: AE_NOT_FOUND, While evaluating Sleep State [\_S1_] (20150818/hwxface-580)
[    0.082005] ACPI Exception: AE_NOT_FOUND, While evaluating Sleep State [\_S2_] (20150818/hwxface-580)
[    0.084005] ACPI Exception: AE_NOT_FOUND, While evaluating Sleep State [\_S3_] (20150818/hwxface-580)
[    0.086012] ACPI Exception: AE_NOT_FOUND, While evaluating Sleep State [\_S4_] (20150818/hwxface-580)
[    0.088016] ACPI: (supports S0 S5)
[    0.089004] ACPI: Using IOAPIC for interrupt routing
[    0.090034] PCI: Using host bridge windows from ACPI; if necessary, use "pci=nocrs" and report a bug
[    0.096361] ACPI: PCI Root Bridge [PCI0] (domain 0000 [bus 00-ff])
[    0.097012] acpi PNP0A03:00: _OSC: OS supports [ASPM ClockPM Segments MSI]
[    0.098020] acpi PNP0A03:00: _OSC failed (AE_NOT_FOUND); disabling ASPM
[    0.099101] acpi PNP0A03:00: fail to add MMCONFIG information, can't access extended PCI configuration space under this bridge.
[    0.101674] acpiphp: Slot [3] registered
[    0.102084] acpiphp: Slot [4] registered
[    0.103096] acpiphp: Slot [5] registered
[    0.104099] acpiphp: Slot [6] registered
[    0.105079] acpiphp: Slot [7] registered
[    0.106051] acpiphp: Slot [8] registered
[    0.107052] acpiphp: Slot [9] registered
[    0.108048] acpiphp: Slot [10] registered
[    0.109047] acpiphp: Slot [11] registered
[    0.110047] acpiphp: Slot [12] registered
[    0.111047] acpiphp: Slot [13] registered
[    0.112046] acpiphp: Slot [14] registered
[    0.113041] acpiphp: Slot [15] registered
[    0.114049] acpiphp: Slot [16] registered
[    0.115043] acpiphp: Slot [17] registered
[    0.116041] acpiphp: Slot [18] registered
[    0.117043] acpiphp: Slot [19] registered
[    0.118040] acpiphp: Slot [20] registered
[    0.119040] acpiphp: Slot [21] registered
[    0.120038] acpiphp: Slot [22] registered
[    0.122012] acpiphp: Slot [23] registered
[    0.123049] acpiphp: Slot [24] registered
[    0.124043] acpiphp: Slot [25] registered
[    0.125043] acpiphp: Slot [26] registered
[    0.126040] acpiphp: Slot [27] registered
[    0.127040] acpiphp: Slot [28] registered
[    0.128043] acpiphp: Slot [29] registered
[    0.129043] acpiphp: Slot [30] registered
[    0.130043] acpiphp: Slot [31] registered
[    0.131026] PCI host bridge to bus 0000:00
[    0.132008] pci_bus 0000:00: root bus resource [bus 00-ff]
[    0.133006] pci_bus 0000:00: root bus resource [io  0x0000-0x0cf7 window]
[    0.134007] pci_bus 0000:00: root bus resource [io  0x0d00-0xffff window]
[    0.136004] pci_bus 0000:00: root bus resource [mem 0x000a0000-0x000bffff window]
[    0.137007] pci_bus 0000:00: root bus resource [mem 0xc0000000-0xfebfffff window]
[    0.139062] pci 0000:00:00.0: [8086:1237] type 00 class 0x060000
[    0.139840] pci 0000:00:01.0: [8086:7000] type 00 class 0x060100
[    0.140899] pci 0000:00:01.1: [8086:7010] type 00 class 0x010180
[    0.149940] pci 0000:00:01.1: reg 0x20: [io  0xc060-0xc06f]
[    0.153065] pci 0000:00:01.1: legacy IDE quirk: reg 0x10: [io  0x01f0-0x01f7]
[    0.154005] pci 0000:00:01.1: legacy IDE quirk: reg 0x14: [io  0x03f6]
[    0.155005] pci 0000:00:01.1: legacy IDE quirk: reg 0x18: [io  0x0170-0x0177]
[    0.156004] pci 0000:00:01.1: legacy IDE quirk: reg 0x1c: [io  0x0376]
[    0.157285] pci 0000:00:01.3: [8086:7113] type 00 class 0x068000
[    0.158617] pci 0000:00:01.3: quirk: [io  0x0600-0x063f] claimed by PIIX4 ACPI
[    0.159029] pci 0000:00:01.3: quirk: [io  0x0700-0x070f] claimed by PIIX4 SMB
[    0.160437] pci 0000:00:02.0: [1234:1113] type 00 class 0x030000
[    0.163009] pci 0000:00:02.0: reg 0x10: [mem 0xfe000000-0xfe0fffff pref]
[    0.166008] pci 0000:00:02.0: reg 0x14: [mem 0xfe100000-0xfe10ffff pref]
[    0.168007] pci 0000:00:02.0: reg 0x18: [mem 0xfc000000-0xfdffffff pref]
[    0.178009] pci 0000:00:02.0: reg 0x30: [mem 0xfebd0000-0xfebdffff pref]
[    0.179418] pci 0000:00:03.0: [1af4:1000] type 00 class 0x020000
[    0.181008] pci 0000:00:03.0: reg 0x10: [io  0xc040-0xc05f]
[    0.183007] pci 0000:00:03.0: reg 0x14: [mem 0xfebf0000-0xfebf0fff]
[    0.193007] pci 0000:00:03.0: reg 0x30: [mem 0xfebe0000-0xfebeffff pref]
[    0.193381] pci 0000:00:04.0: [1af4:1004] type 00 class 0x010000
[    0.195006] pci 0000:00:04.0: reg 0x10: [io  0xc000-0xc03f]
[    0.197006] pci 0000:00:04.0: reg 0x14: [mem 0xfebf1000-0xfebf1fff]
[    0.208679] ACPI: PCI Interrupt Link [LNKA] (IRQs 5 *10 11)
[    0.210142] ACPI: PCI Interrupt Link [LNKB] (IRQs 5 *10 11)
[    0.212129] ACPI: PCI Interrupt Link [LNKC] (IRQs 5 10 *11)
[    0.213978] ACPI: PCI Interrupt Link [LNKD] (IRQs 5 10 *11)
[    0.215070] ACPI: PCI Interrupt Link [LNKS] (IRQs *9)
[    0.216081] acpi LNXCPU:00: Invalid PBLK length [0]
[    0.217347] ACPI: Enabled 16 GPEs in block 00 to 0F
[    0.218149] vgaarb: setting as boot device: PCI:0000:00:02.0
[    0.219000] vgaarb: device added: PCI:0000:00:02.0,decodes=io+mem,owns=io+mem,locks=none
[    0.219003] vgaarb: loaded
[    0.220010] vgaarb: bridge control possible 0000:00:02.0
[    0.221092] SCSI subsystem initialized
[    0.222046] ACPI: bus type USB registered
[    0.223032] usbcore: registered new interface driver usbfs
[    0.224017] usbcore: registered new interface driver hub
[    0.224893] usbcore: registered new device driver usb
[    0.225141] PCI: Using ACPI for IRQ routing
[    0.226004] PCI: pci_cache_line_size set to 64 bytes
[    0.226165] e820: reserve RAM buffer [mem 0x0009fc00-0x0009ffff]
[    0.226167] e820: reserve RAM buffer [mem 0xbfffe000-0xbfffffff]
[    0.227062] NetLabel: Initializing
[    0.227844] NetLabel:  domain hash size = 128
[    0.228002] NetLabel:  protocols = UNLABELED CIPSOv4
[    0.229023] NetLabel:  unlabeled traffic allowed by default
[    0.230070] clocksource: Switched to clocksource kvm-clock
[    0.239602] pnp: PnP ACPI init
[    0.270914] pnp 00:00: Plug and Play ACPI device, IDs PNP0b00 (active)
[    0.270985] pnp 00:01: Plug and Play ACPI device, IDs PNP0303 (active)
[    0.271071] pnp 00:02: Plug and Play ACPI device, IDs PNP0f13 (active)
[    0.271125] pnp 00:03: [dma 2]
[    0.271157] pnp 00:03: Plug and Play ACPI device, IDs PNP0700 (active)
[    0.271309] pnp 00:04: Plug and Play ACPI device, IDs PNP0501 (active)
[    0.271710] pnp: PnP ACPI: found 5 devices
[    0.280453] clocksource: acpi_pm: mask: 0xffffff max_cycles: 0xffffff, max_idle_ns: 2085701024 ns
[    0.282842] pci_bus 0000:00: resource 4 [io  0x0000-0x0cf7 window]
[    0.282846] pci_bus 0000:00: resource 5 [io  0x0d00-0xffff window]
[    0.282850] pci_bus 0000:00: resource 6 [mem 0x000a0000-0x000bffff window]
[    0.282854] pci_bus 0000:00: resource 7 [mem 0xc0000000-0xfebfffff window]
[    0.282920] NET: Registered protocol family 2
[    0.284479] TCP established hash table entries: 32768 (order: 6, 262144 bytes)
[    0.286951] TCP bind hash table entries: 32768 (order: 7, 524288 bytes)
[    0.288431] TCP: Hash tables configured (established 32768 bind 32768)
[    0.289848] UDP hash table entries: 2048 (order: 4, 65536 bytes)
[    0.291153] UDP-Lite hash table entries: 2048 (order: 4, 65536 bytes)
[    0.292475] NET: Registered protocol family 1
[    0.293652] pci 0000:00:00.0: Limiting direct PCI/PCI transfers
[    0.294919] pci 0000:00:01.0: PIIX3: Enabling Passive Release
[    0.296176] pci 0000:00:01.0: Activating ISA DMA hang workarounds
[    0.297466] pci 0000:00:02.0: Video device with shadowed ROM
[    0.297512] PCI: CLS 0 bytes, default 64
[    0.297622] Unpacking initramfs...
[    0.960901] Freeing initrd memory: 43332K (ffff880032b4f000 - ffff8800355a0000)
[    0.962495] PCI-DMA: Using software bounce buffering for IO (SWIOTLB)
[    0.963127] software IO TLB [mem 0xbbffe000-0xbfffe000] (64MB) mapped at [ffff8800bbffe000-ffff8800bfffdfff]
[    0.964429] microcode: CPU0 sig=0x6d3, pf=0x1, revision=0x1
[    0.965125] microcode: Microcode Update Driver: v2.00 <tigran@aivazian.fsnet.co.uk>, Peter Oruba
[    0.966444] sha1_ssse3: Neither AVX nor AVX2 nor SSSE3 is available/usable.
[    0.967093] sha256_ssse3: Neither AVX nor SSSE3 is available/usable.
[    0.967885] futex hash table entries: 256 (order: 2, 16384 bytes)
[    0.968544] audit: initializing netlink subsys (disabled)
[    0.969182] audit: type=2000 audit(1488322850.400:1): initialized
[    0.970000] Initialise system trusted keyring
[    0.970701] HugeTLB registered 2 MB page size, pre-allocated 0 pages
[    0.972720] zbud: loaded
[    0.973469] VFS: Disk quotas dquot_6.6.0
[    0.974085] VFS: Dquot-cache hash table entries: 512 (order 0, 4096 bytes)
[    0.974871] Key type big_key registered
[    0.975469] SELinux:  Registering netfilter hooks
[    0.979360] NET: Registered protocol family 38
[    0.979968] Key type asymmetric registered
[    0.980573] Asymmetric key parser 'x509' registered
[    0.981197] Block layer SCSI generic (bsg) driver version 0.4 loaded (major 251)
[    0.982321] io scheduler noop registered
[    0.982916] io scheduler deadline registered (default)
[    0.983565] io scheduler cfq registered
[    0.984246] pci_hotplug: PCI Hot Plug PCI Core version: 0.5
[    0.984874] pciehp: PCI Express Hot Plug Controller Driver version: 0.4
[    0.985538] intel_idle: does not run on family 6 model 13
[    0.985598] input: Power Button as /devices/LNXSYSTM:00/LNXPWRBN:00/input/input0
[    0.986700] ACPI: Power Button [PWRF]
[    0.987435] GHES: HEST is not enabled!
[    0.988078] Serial: 8250/16550 driver, 4 ports, IRQ sharing enabled
[    1.046933] 00:04: ttyS0 at I/O 0x3f8 (irq = 4, base_baud = 115200) is a 16550A
[    1.049565] Non-volatile memory driver v1.3
[    1.050709] Linux agpgart interface v0.103
[    1.052063] rdac: device handler registered
[    1.085199] hp_sw: device handler registered
[    1.086569] emc: device handler registered
[    1.087914] alua: device handler registered
[    1.089329] libphy: Fixed MDIO Bus: probed
[    1.090792] ehci_hcd: USB 2.0 'Enhanced' Host Controller (EHCI) Driver
[    1.092251] ehci-pci: EHCI PCI platform driver
[    1.093644] ohci_hcd: USB 1.1 'Open' Host Controller (OHCI) Driver
[    1.095046] ohci-pci: OHCI PCI platform driver
[    1.096302] uhci_hcd: USB Universal Host Controller Interface driver
[    1.097706] usbcore: registered new interface driver usbserial
[    1.099046] usbcore: registered new interface driver usbserial_generic
[    1.100373] usbserial: USB Serial support registered for generic
[    1.101765] i8042: PNP: PS/2 Controller [PNP0303:KBD,PNP0f13:MOU] at 0x60,0x64 irq 1,12
[    1.105229] serio: i8042 KBD port at 0x60,0x64 irq 1
[    1.106425] serio: i8042 AUX port at 0x60,0x64 irq 12
[    1.107776] mousedev: PS/2 mouse device common for all mice
[    1.109553] input: AT Translated Set 2 keyboard as /devices/platform/i8042/serio0/input/input1
[    1.112229] rtc_cmos 00:00: RTC can wake from S4
[    1.146014] rtc_cmos 00:00: rtc core: registered rtc_cmos as rtc0
[    1.147660] rtc_cmos 00:00: alarms up to one day, 114 bytes nvram
[    1.149293] hidraw: raw HID events driver (C) Jiri Kosina
[    1.150934] usbcore: registered new interface driver usbhid
[    1.152358] usbhid: USB HID core driver
[    1.153718] drop_monitor: Initializing network drop monitor service
[    1.155192] Initializing XFRM netlink socket
[    1.156626] NET: Registered protocol family 10
[    1.158211] NET: Registered protocol family 17
[    1.159887] registered taskstats version 1
[    1.161145] Loading compiled-in X.509 certificates
[    1.164066] Loaded X.509 cert 'Build time autogenerated kernel key: fe8b30be80ba59f61113fac2dc28f4f7e2d1d2d2'
[    1.166347] zswap: loaded using pool lzo/zbud
[    1.170325] Key type trusted registered
[    1.199462] Key type encrypted registered
[    1.200921] ima: No TPM chip found, activating TPM-bypass!
[    1.202422] evm: HMAC attrs: 0x1
[    1.204385] rtc_cmos 00:00: setting system clock to 2017-02-28 23:00:50 UTC (1488322850)
[    1.207880] Freeing unused kernel memory: 1752K (ffffffff81b16000 - ffffffff81ccc000)
[    1.213698] random: systemd urandom read with 4 bits of entropy available
[    1.216488] systemd[1]: systemd 219 running in system mode. (+PAM +AUDIT +SELINUX +IMA -APPARMOR +SMACK +SYSVINIT +UTMP +LIBCRYPTSETUP +GCRYPT +GNUTLS +ACL +XZ -LZ4 -SECCOMP +BLKID +ELFUTILS +KMOD +IDN)
[    1.219986] systemd[1]: Detected virtualization kvm.
[    1.221210] systemd[1]: Detected architecture x86-64.
[    1.222424] systemd[1]: Running in initial RAM disk.
[    1.257153] systemd[1]: Set hostname to <vm0>.
[    1.314494] systemd[1]: Created slice -.slice.
[    1.315513] systemd[1]: Starting -.slice.
[    1.317993] systemd[1]: Created slice System Slice.
[    1.318944] systemd[1]: Starting System Slice.
[    1.321476] systemd[1]: Listening on udev Control Socket.
[    1.322428] systemd[1]: Starting udev Control Socket.
[    1.324915] systemd[1]: Listening on udev Kernel Socket.
[    1.325873] systemd[1]: Starting udev Kernel Socket.
[    1.328147] systemd[1]: Reached target Timers.
[    1.329026] systemd[1]: Starting Timers.
[    1.331233] systemd[1]: Reached target Swap.
[    1.332114] systemd[1]: Starting Swap.
[    1.334329] systemd[1]: Reached target Slices.
[    1.335213] systemd[1]: Starting Slices.
[    1.337459] systemd[1]: Listening on Journal Socket.
[    1.338297] systemd[1]: Starting Journal Socket.
[    1.339560] systemd[1]: Starting Setup Virtual Console...
[    1.403793] systemd[1]: Starting Create list of required static device nodes for the current kernel...
[    1.617461] systemd[1]: Started Load Kernel Modules.
[    1.622762] systemd[1]: Starting Apply Kernel Variables...
[    1.632516] systemd[1]: Started dracut ask for additional cmdline parameters.
[    1.635591] systemd[1]: Starting dracut cmdline hook...
[    1.791583] systemd[1]: Starting Journal Service...
[    1.810121] systemd[1]: Reached target Sockets.
[    1.810960] systemd[1]: Starting Sockets.
[    1.889150] systemd[1]: Reached target Local File Systems.
[    1.891290] systemd[1]: Starting Local File Systems.
[    1.898048] systemd[1]: Started Journal Service.
[    1.966831] clocksource: tsc: mask: 0xffffffffffffffff max_cycles: 0x26eb3cc21a9, max_idle_ns: 440795299783 ns
[    2.060867] input: ImExPS/2 Generic Explorer Mouse as /devices/platform/i8042/serio1/input/input3
[    2.193075] device-mapper: uevent: version 1.0.3
[    2.194109] device-mapper: ioctl: 4.33.0-ioctl (2015-8-18) initialised: dm-devel@redhat.com
[    2.517166] Floppy drive(s): fd0 is 1.44M
[    2.521559] ACPI: PCI Interrupt Link [LNKC] enabled at IRQ 11
[    2.524408] virtio-pci 0000:00:03.0: virtio_pci: leaving for legacy driver
[    2.527099] ACPI: PCI Interrupt Link [LNKD] enabled at IRQ 10
[    2.527875] virtio-pci 0000:00:04.0: virtio_pci: leaving for legacy driver
[    2.529396] FDC 0 is a S82078B
[    2.595303] scsi host0: Virtio SCSI HBA
[    2.607147] libata version 3.00 loaded.
[    2.607209] scsi 0:0:0:0: Direct-Access     QEMU     QEMU HARDDISK    1.5. PQ: 0 ANSI: 5
[    2.645554] ata_piix 0000:00:01.1: version 2.13
[    2.653128] scsi host1: ata_piix
[    2.657104] scsi host2: ata_piix
[    2.657264] ata1: PATA max MWDMA2 cmd 0x1f0 ctl 0x3f6 bmdma 0xc060 irq 14
[    2.657266] ata2: PATA max MWDMA2 cmd 0x170 ctl 0x376 bmdma 0xc068 irq 15
[    2.816714] ata2.01: NODEV after polling detection
[    2.817115] ata2.00: ATAPI: QEMU DVD-ROM, 1.5.3, max UDMA/100
[    2.818682] ata2.00: configured for MWDMA2
[    2.900939] scsi 2:0:0:0: CD-ROM            QEMU     QEMU DVD-ROM     1.5. PQ: 0 ANSI: 5
[    2.938586] sd 0:0:0:0: [sda] 62914560 512-byte logical blocks: (32.2 GB/30.0 GiB)
[    2.940438] sd 0:0:0:0: [sda] Write Protect is off
[    2.941373] sd 0:0:0:0: [sda] Mode Sense: 63 00 00 08
[    2.948983] sd 0:0:0:0: [sda] Write cache: enabled, read cache: enabled, doesn't support DPO or FUA
[    2.952419]  sda: sda1 sda2
[    2.953767] sd 0:0:0:0: [sda] Attached SCSI disk
[    3.002040] sr 2:0:0:0: [sr0] scsi3-mmc drive: 4x/4x cd/rw xa/form2 tray
[    3.002871] cdrom: Uniform CD-ROM driver Revision: 3.20
[    3.004339] sr 2:0:0:0: Attached scsi CD-ROM sr0
[    3.554241] SGI XFS with ACLs, security attributes, no debug enabled
[    3.557007] XFS (dm-0): Mounting V4 Filesystem
[    3.564764] XFS (dm-0): Starting recovery (logdev: internal)
[    3.570761] XFS (dm-0): Ending recovery (logdev: internal)
[    4.087244] systemd-journald[139]: Received SIGTERM from PID 1 (systemd).
[    4.132085] audit: type=1404 audit(1488322853.427:2): enforcing=1 old_enforcing=0 auid=4294967295 ses=4294967295
[    4.176189] SELinux: 32768 avtab hash slots, 112391 rules.
[    4.207048] SELinux: 32768 avtab hash slots, 112391 rules.
[    4.245844] SELinux:  8 users, 105 roles, 4954 types, 302 bools, 1 sens, 1024 cats
[    4.245848] SELinux:  83 classes, 112391 rules
[    4.251058] SELinux:  Class netlink_iscsi_socket not defined in policy.
[    4.251851] SELinux:  Class netlink_fib_lookup_socket not defined in policy.
[    4.252640] SELinux:  Class netlink_connector_socket not defined in policy.
[    4.253426] SELinux:  Class netlink_netfilter_socket not defined in policy.
[    4.254232] SELinux:  Class netlink_generic_socket not defined in policy.
[    4.255034] SELinux:  Class netlink_scsitransport_socket not defined in policy.
[    4.291389] SELinux:  Class netlink_rdma_socket not defined in policy.
[    4.292729] SELinux:  Class netlink_crypto_socket not defined in policy.
[    4.294186] SELinux:  Permission audit_read in class capability2 not defined in policy.
[    4.296693] SELinux:  Class binder not defined in policy.
[    4.298085] SELinux: the above unknown classes and permissions will be allowed
[    4.300541] SELinux:  Completing initialization.
[    4.300543] SELinux:  Setting up existing superblocks.
[    4.307701] audit: type=1403 audit(1488322853.602:3): policy loaded auid=4294967295 ses=4294967295
[    4.317405] systemd[1]: Successfully loaded SELinux policy in 185.631ms.
[    4.349925] random: nonblocking pool is initialized
[    4.386140] ip_tables: (C) 2000-2006 Netfilter Core Team
[    4.411179] systemd[1]: Inserted module 'ip_tables'
[    4.442884] systemd[1]: Relabelled /dev and /run in 27.440ms.
[    5.089058] systemd-journald[760]: Received request to flush runtime journal from PID 1
[    5.289798] RPC: Registered named UNIX socket transport module.
[    5.289799] RPC: Registered udp transport module.
[    5.289799] RPC: Registered tcp transport module.
[    5.289800] RPC: Registered tcp NFSv4.1 backchannel transport module.
[    5.621396] Installing knfsd (copyright (C) 1996 okir@monad.swb.de).
[    5.956938] input: PC Speaker as /devices/platform/pcspkr/input/input4
[    5.973157] ACPI: No IRQ available for PCI Interrupt Link [LNKS]. Try pci=noacpi or acpi=off
[    5.997906] piix4_smbus 0000:00:01.3: PCI INT A: no GSI
[    6.067412] sd 0:0:0:0: Attached scsi generic sg0 type 0
[    6.076159] sr 2:0:0:0: Attached scsi generic sg1 type 5
[    6.190614] Adding 3145724k swap on /dev/mapper/centos-swap.  Priority:-1 extents:1 across:3145724k FS
[    6.303294] XFS (sda1): Mounting V4 Filesystem
[    6.307267] piix4_smbus 0000:00:01.3: SMBus Host Controller at 0x700, revision 0
[    6.435678] XFS (sda1): Ending clean mount
[    6.565832] ppdev: user-space parallel port driver
[    6.833052] audit: type=1305 audit(1488322856.128:4): audit_pid=950 old=0 auid=4294967295 ses=4294967295 subj=system_u:system_r:auditd_t:s0 res=1
[    8.034333] nf_conntrack version 0.5.0 (16384 buckets, 65536 max)
[    8.141960] ip6_tables: (C) 2000-2006 Netfilter Core Team
[    8.315056] Ebtables v2.0 registered
[    8.487161] bridge: automatic filtering via arp/ip/ip6tables has been deprecated. Update your scripts to load br_netfilter if you need this.
[    8.965791] IPv6: ADDRCONF(NETDEV_UP): eth0: link is not ready
[   10.254628] IPv6: eth0: IPv6 duplicate address fe80::5054:ff:fe12:3456 detected!
[   15.412009] Adjusting kvm-clock more than 11% (9437017 vs 9311354)
[   15.659308] tun: Universal TUN/TAP device driver, 1.6
[   15.659814] tun: (C) 1999-2004 Max Krasnyansky <maxk@qualcomm.com>
[   15.679723] device virbr0-nic entered promiscuous mode
[   16.126302] virbr0: port 1(virbr0-nic) entered listening state
[   16.126491] virbr0: port 1(virbr0-nic) entered listening state
[   16.203204] virbr0: port 1(virbr0-nic) entered disabled state
[  208.596661] mymod: module license 'Proprietary' taints kernel.
[  208.596831] Disabling lock debugging due to kernel taint
[  208.596978] mymod: module verification failed: signature and/or required key missing - tainting kernel
[  208.598490] Kyuoko3 probe is being called
[  208.598612] init function from kernel
[  208.650753] Kyouko_Kernel open
[  208.759790] bind_dma: addr after vm_mmap ffffffea 
[  208.759938] genirq: Flags mismatch irq 0. 00000080 (dma_intr_handler) vs. 00015a00 (timer)
[  208.760004] CPU: 0 PID: 3536 Comm: a.out Tainted: P           OE   4.3.3 #2
[  208.760004] Hardware name: Red Hat KVM, BIOS 0.5.1 01/01/2011
[  208.760004]  0000000000000000 0000000094240be8 ffff8800b66a3d98 ffffffff81320fa0
[  208.760004]  ffff8800b7b77d80 ffff8800b66a3df0 ffffffff810dbd42 0000000000000246
[  208.760004]  ffff88013b02989c ffff8801388d28f8 0000000094240be8 ffffffffa0405000
[  208.760004] Call Trace:
[  208.760004]  [<ffffffff81320fa0>] dump_stack+0x44/0x64
[  208.760004]  [<ffffffff810dbd42>] __setup_irq+0x512/0x580
[  208.760004]  [<ffffffffa0405000>] ? 0xffffffffa0405000
[  208.760004]  [<ffffffff810dbf34>] request_threaded_irq+0xf4/0x1a0
[  208.760004]  [<ffffffffa04058ee>] bind_dma+0x10e/0x1f0 [mymod]
[  208.760004]  [<ffffffffa0405b75>] kyouko3fops_ioctl+0x95/0xb0 [mymod]
[  208.760004]  [<ffffffff812110f2>] do_vfs_ioctl+0x2d2/0x4b0
[  208.760004]  [<ffffffff812b2792>] ? selinux_file_ioctl+0x52/0xd0
[  208.760004]  [<ffffffff81211349>] SyS_ioctl+0x79/0x90
[  208.760004]  [<ffffffff81003cd5>] ? syscall_return_slowpath+0x55/0x150
[  208.760004]  [<ffffffff816872ae>] entry_SYSCALL_64_fastpath+0x12/0x71
[  208.769361] request_irq failed, ErrNo: -16m irqNo: 0
[  208.771095] ------------[ cut here ]------------
[  208.771602] WARNING: CPU: 0 PID: 3536 at kernel/irq/manage.c:1379 __free_irq+0x95/0x210()
[  208.772007] Trying to free already-free IRQ 0
[  208.772007] Modules linked in: mymod(POE) xt_CHECKSUM ipt_MASQUERADE nf_nat_masquerade_ipv4 tun ip6t_rpfilter ip6t_REJECT nf_reject_ipv6 ipt_REJECT nf_reject_ipv4 xt_conntrack ebtable_nat ebtable_broute bridge stp llc ebtable_filter ebtables ip6table_nat nf_conntrack_ipv6 nf_defrag_ipv6 nf_nat_ipv6 ip6table_mangle ip6table_security ip6table_raw ip6table_filter ip6_tables iptable_nat nf_conntrack_ipv4 nf_defrag_ipv4 nf_nat_ipv4 nf_nat nf_conntrack iptable_mangle iptable_security iptable_raw iptable_filter ppdev parport_pc sg parport i2c_piix4 pcspkr i2c_core acpi_cpufreq nfsd auth_rpcgss nfs_acl lockd grace sunrpc ip_tables xfs libcrc32c sr_mod cdrom sd_mod ata_generic pata_acpi ata_piix libata virtio_scsi virtio_net virtio_pci serio_raw floppy virtio_ring virtio dm_mirror dm_region_hash dm_log dm_mod

[  208.772007] CPU: 0 PID: 3536 Comm: a.out Tainted: P           OE   4.3.3 #2
[  208.772007] Hardware name: Red Hat KVM, BIOS 0.5.1 01/01/2011
[  208.772007]  0000000000000000 0000000094240be8 ffff8800b66a3d40 ffffffff81320fa0
[  208.772007]  ffff8800b66a3d88 ffff8800b66a3d78 ffffffff81083026 0000000000000000
[  208.772007]  0000000000000000 ffff88013b02989c ffff88013b029800 ffffffffa04075c0
[  208.772007] Call Trace:
[  208.772007]  [<ffffffff81320fa0>] dump_stack+0x44/0x64
[  208.772007]  [<ffffffff81083026>] warn_slowpath_common+0x86/0xc0
[  208.772007]  [<ffffffff810830bc>] warn_slowpath_fmt+0x5c/0x80
[  208.772007]  [<ffffffff810da5b5>] __free_irq+0x95/0x210
[  208.772007]  [<ffffffff810da7c9>] free_irq+0x49/0xb0
[  208.772007]  [<ffffffffa0405a80>] unbind_dma+0xb0/0x110 [mymod]
[  208.772007]  [<ffffffffa0405b48>] kyouko3fops_ioctl+0x68/0xb0 [mymod]
[  208.772007]  [<ffffffff812110f2>] do_vfs_ioctl+0x2d2/0x4b0
[  208.772007]  [<ffffffff812b2792>] ? selinux_file_ioctl+0x52/0xd0
[  208.772007]  [<ffffffff81211349>] SyS_ioctl+0x79/0x90
[  208.772007]  [<ffffffff81003cd5>] ? syscall_return_slowpath+0x55/0x150
[  208.772007]  [<ffffffff816872ae>] entry_SYSCALL_64_fastpath+0x12/0x71
[  208.772007] ---[ end trace 925b4d2760740449 ]---
[  210.821045] kyouko3_release: BUUH BYE
[  310.587143] kyouko3_remove Call recieved
[  310.587649] Exit Function Kernel
[  311.055988] Kyuoko3 probe is being called
[  311.056514] init function from kernel
[  311.105617] Kyouko_Kernel open
[  311.118212] bind_dma: addr after vm_mmap ffffffea 
[  311.118721] genirq: Flags mismatch irq 0. 00000080 (dma_intr_handler) vs. 00015a00 (timer)
[  311.119156] CPU: 0 PID: 4120 Comm: a.out Tainted: P        W  OE   4.3.3 #2
[  311.119156] Hardware name: Red Hat KVM, BIOS 0.5.1 01/01/2011
[  311.119156]  0000000000000000 00000000a2c9b32e ffff8800b665fd98 ffffffff81320fa0
[  311.119156]  ffff88013947f300 ffff8800b665fdf0 ffffffff810dbd42 0000000000000246
[  311.119156]  ffff88013b02989c ffff8801388d2e18 00000000a2c9b32e ffffffffa040a000
[  311.119156] Call Trace:
[  311.119156]  [<ffffffff81320fa0>] dump_stack+0x44/0x64
[  311.119156]  [<ffffffff810dbd42>] __setup_irq+0x512/0x580
[  311.119156]  [<ffffffffa040a000>] ? 0xffffffffa040a000
[  311.119156]  [<ffffffff810dbf34>] request_threaded_irq+0xf4/0x1a0
[  311.119156]  [<ffffffffa040a8ee>] bind_dma+0x10e/0x1f0 [mymod]
[  311.119156]  [<ffffffffa040ab75>] kyouko3fops_ioctl+0x95/0xb0 [mymod]
[  311.119156]  [<ffffffff812110f2>] do_vfs_ioctl+0x2d2/0x4b0
[  311.119156]  [<ffffffff812b2792>] ? selinux_file_ioctl+0x52/0xd0
[  311.119156]  [<ffffffff81211349>] SyS_ioctl+0x79/0x90
[  311.119156]  [<ffffffff81003cd5>] ? syscall_return_slowpath+0x55/0x150
[  311.119156]  [<ffffffff816872ae>] entry_SYSCALL_64_fastpath+0x12/0x71
[  311.130367] request_irq failed, ErrNo: -16m irqNo: 0
[  311.132053] ------------[ cut here ]------------
[  311.132556] WARNING: CPU: 0 PID: 4120 at kernel/irq/manage.c:1379 __free_irq+0x95/0x210()
[  311.133026] Trying to free already-free IRQ 0
[  311.133026] Modules linked in: mymod(POE) xt_CHECKSUM ipt_MASQUERADE nf_nat_masquerade_ipv4 tun ip6t_rpfilter ip6t_REJECT nf_reject_ipv6 ipt_REJECT nf_reject_ipv4 xt_conntrack ebtable_nat ebtable_broute bridge stp llc ebtable_filter ebtables ip6table_nat nf_conntrack_ipv6 nf_defrag_ipv6 nf_nat_ipv6 ip6table_mangle ip6table_security ip6table_raw ip6table_filter ip6_tables iptable_nat nf_conntrack_ipv4 nf_defrag_ipv4 nf_nat_ipv4 nf_nat nf_conntrack iptable_mangle iptable_security iptable_raw iptable_filter ppdev parport_pc sg parport i2c_piix4 pcspkr i2c_core acpi_cpufreq nfsd auth_rpcgss nfs_acl lockd grace sunrpc ip_tables xfs libcrc32c sr_mod cdrom sd_mod ata_generic pata_acpi ata_piix libata virtio_scsi virtio_net virtio_pci serio_raw floppy virtio_ring virtio dm_mirror dm_region_hash dm_log dm_mod
[  311.133026]  [last unloaded: mymod]
[  311.133026] CPU: 0 PID: 4120 Comm: a.out Tainted: P        W  OE   4.3.3 #2
[  311.133026] Hardware name: Red Hat KVM, BIOS 0.5.1 01/01/2011
[  311.133026]  0000000000000000 00000000a2c9b32e ffff8800b665fd40 ffffffff81320fa0
[  311.133026]  ffff8800b665fd88 ffff8800b665fd78 ffffffff81083026 0000000000000000
[  311.133026]  0000000000000000 ffff88013b02989c ffff88013b029800 ffffffffa040c5c0
[  311.133026] Call Trace:
[  311.133026]  [<ffffffff81320fa0>] dump_stack+0x44/0x64
[  311.133026]  [<ffffffff81083026>] warn_slowpath_common+0x86/0xc0
[  311.133026]  [<ffffffff810830bc>] warn_slowpath_fmt+0x5c/0x80
[  311.133026]  [<ffffffff810da5b5>] __free_irq+0x95/0x210
[  311.133026]  [<ffffffff810da7c9>] free_irq+0x49/0xb0
[  311.133026]  [<ffffffffa040aa80>] unbind_dma+0xb0/0x110 [mymod]
[  311.133026]  [<ffffffffa040ab48>] kyouko3fops_ioctl+0x68/0xb0 [mymod]
[  311.133026]  [<ffffffff812110f2>] do_vfs_ioctl+0x2d2/0x4b0
[  311.133026]  [<ffffffff812b2792>] ? selinux_file_ioctl+0x52/0xd0
[  311.133026]  [<ffffffff81211349>] SyS_ioctl+0x79/0x90
[  311.133026]  [<ffffffff81003cd5>] ? syscall_return_slowpath+0x55/0x150
[  311.133026]  [<ffffffff816872ae>] entry_SYSCALL_64_fastpath+0x12/0x71
[  311.133026] ---[ end trace 925b4d276074044a ]---
[  313.359056] kyouko3_release: BUUH BYE
[  841.327093] kyouko3_remove Call recieved
[  841.327224] Exit Function Kernel
[  842.177284] Kyuoko3 probe is being called
[  842.177413] init function from kernel
[  842.223038] Kyouko_Kernel open
[  842.532908] genirq: Flags mismatch irq 0. 00000080 (dma_intr_handler) vs. 00015a00 (timer)
[  842.533007] CPU: 0 PID: 4594 Comm: a.out Tainted: P        W  OE   4.3.3 #2
[  842.533007] Hardware name: Red Hat KVM, BIOS 0.5.1 01/01/2011
[  842.533007]  0000000000000000 0000000065360561 ffff880032d4fd98 ffffffff81320fa0
[  842.533007]  ffff8800b7b77280 ffff880032d4fdf0 ffffffff810dbd42 0000000000000246
[  842.533007]  ffff88013b02989c ffff8801388d2e40 0000000065360561 ffffffffa0405000
[  842.533007] Call Trace:
[  842.533007]  [<ffffffff81320fa0>] dump_stack+0x44/0x64
[  842.533007]  [<ffffffff810dbd42>] __setup_irq+0x512/0x580
[  842.533007]  [<ffffffffa0405000>] ? 0xffffffffa0405000
[  842.533007]  [<ffffffff810dbf34>] request_threaded_irq+0xf4/0x1a0
[  842.533007]  [<ffffffffa0405844>] bind_dma+0x64/0x1f0 [mymod]
[  842.533007]  [<ffffffff812b272b>] ? ioctl_has_perm+0xdb/0xf0
[  842.533007]  [<ffffffffa0405b75>] kyouko3fops_ioctl+0x95/0xb0 [mymod]
[  842.533007]  [<ffffffff812110f2>] do_vfs_ioctl+0x2d2/0x4b0
[  842.533007]  [<ffffffff812b2792>] ? selinux_file_ioctl+0x52/0xd0
[  842.533007]  [<ffffffff81211349>] SyS_ioctl+0x79/0x90
[  842.533007]  [<ffffffff81003cd5>] ? syscall_return_slowpath+0x55/0x150
[  842.533007]  [<ffffffff816872ae>] entry_SYSCALL_64_fastpath+0x12/0x71
[  842.539030] request_irq failed, ErrNo: -16m irqNo: 0
[  842.540134] ------------[ cut here ]------------
[  842.540639] WARNING: CPU: 0 PID: 4594 at kernel/irq/manage.c:1379 __free_irq+0x95/0x210()
[  842.541006] Trying to free already-free IRQ 0
[  842.541006] Modules linked in: mymod(POE) xt_CHECKSUM ipt_MASQUERADE nf_nat_masquerade_ipv4 tun ip6t_rpfilter ip6t_REJECT nf_reject_ipv6 ipt_REJECT nf_reject_ipv4 xt_conntrack ebtable_nat ebtable_broute bridge stp llc ebtable_filter ebtables ip6table_nat nf_conntrack_ipv6 nf_defrag_ipv6 nf_nat_ipv6 ip6table_mangle ip6table_security ip6table_raw ip6table_filter ip6_tables iptable_nat nf_conntrack_ipv4 nf_defrag_ipv4 nf_nat_ipv4 nf_nat nf_conntrack iptable_mangle iptable_security iptable_raw iptable_filter ppdev parport_pc sg parport i2c_piix4 pcspkr i2c_core acpi_cpufreq nfsd auth_rpcgss nfs_acl lockd grace sunrpc ip_tables xfs libcrc32c sr_mod cdrom sd_mod ata_generic pata_acpi ata_piix libata virtio_scsi virtio_net virtio_pci serio_raw floppy virtio_ring virtio dm_mirror dm_region_hash dm_log dm_mod
[  842.541006]  [last unloaded: mymod]
[  842.541006] CPU: 0 PID: 4594 Comm: a.out Tainted: P        W  OE   4.3.3 #2
[  842.541006] Hardware name: Red Hat KVM, BIOS 0.5.1 01/01/2011
[  842.541006]  0000000000000000 0000000065360561 ffff880032d4fd40 ffffffff81320fa0
[  842.541006]  ffff880032d4fd88 ffff880032d4fd78 ffffffff81083026 0000000000000000
[  842.541006]  0000000000000000 ffff88013b02989c ffff88013b029800 ffffffffa04075c0
[  842.541006] Call Trace:
[  842.541006]  [<ffffffff81320fa0>] dump_stack+0x44/0x64
[  842.541006]  [<ffffffff81083026>] warn_slowpath_common+0x86/0xc0
[  842.541006]  [<ffffffff810830bc>] warn_slowpath_fmt+0x5c/0x80
[  842.541006]  [<ffffffff811b5a72>] ? find_vma+0x62/0x70
[  842.541006]  [<ffffffff810da5b5>] __free_irq+0x95/0x210
[  842.541006]  [<ffffffff810da7c9>] free_irq+0x49/0xb0
[  842.541006]  [<ffffffffa0405a80>] unbind_dma+0xb0/0x110 [mymod]
[  842.541006]  [<ffffffffa0405b48>] kyouko3fops_ioctl+0x68/0xb0 [mymod]
[  842.541006]  [<ffffffff812110f2>] do_vfs_ioctl+0x2d2/0x4b0
[  842.541006]  [<ffffffff812b2792>] ? selinux_file_ioctl+0x52/0xd0
[  842.541006]  [<ffffffff81211349>] SyS_ioctl+0x79/0x90
[  842.541006]  [<ffffffff81003cd5>] ? syscall_return_slowpath+0x55/0x150
[  842.541006]  [<ffffffff816872ae>] entry_SYSCALL_64_fastpath+0x12/0x71
[  842.541006] ---[ end trace 925b4d276074044b ]---
[  844.599840] kyouko3_release: BUUH BYE
